<?xml version="1.0" standalone="no"?>
<!DOCTYPE svg PUBLIC "-//W3C//DTD SVG 1.1//EN" "http://www.w3.org/Graphics/SVG/1.1/DTD/svg11.dtd" >
<svg xmlns="http://www.w3.org/2000/svg">
<metadata>Generated by IcoMoon</metadata>
<defs>
<font id="icomoon" horiz-adv-x="1024">
<font-face units-per-em="1024" ascent="960" descent="-64" />
<missing-glyph horiz-adv-x="1024" />
<glyph unicode="&#x20;" horiz-adv-x="512" d="" />
<glyph unicode="&#xe900;" glyph-name="download" horiz-adv-x="951" d="M731.429 182.857c0 20-16.571 36.571-36.571 36.571s-36.571-16.571-36.571-36.571 16.571-36.571 36.571-36.571 36.571 16.571 36.571 36.571zM877.714 182.857c0 20-16.571 36.571-36.571 36.571s-36.571-16.571-36.571-36.571 16.571-36.571 36.571-36.571 36.571 16.571 36.571 36.571zM950.857 310.857v-182.857c0-30.286-24.571-54.857-54.857-54.857h-841.143c-30.286 0-54.857 24.571-54.857 54.857v182.857c0 30.286 24.571 54.857 54.857 54.857h265.714l77.143-77.714c21.143-20.571 48.571-32 77.714-32s56.571 11.429 77.714 32l77.714 77.714h265.143c30.286 0 54.857-24.571 54.857-54.857zM765.143 636c5.714-13.714 2.857-29.714-8-40l-256-256c-6.857-7.429-16.571-10.857-25.714-10.857s-18.857 3.429-25.714 10.857l-256 256c-10.857 10.286-13.714 26.286-8 40 5.714 13.143 18.857 22.286 33.714 22.286h146.286v256c0 20 16.571 36.571 36.571 36.571h146.286c20 0 36.571-16.571 36.571-36.571v-256h146.286c14.857 0 28-9.143 33.714-22.286z" />
<glyph unicode="&#xe901;" glyph-name="file-pdf-o" horiz-adv-x="878" d="M838.857 733.714c21.143-21.143 38.857-63.429 38.857-93.714v-658.286c0-30.286-24.571-54.857-54.857-54.857h-768c-30.286 0-54.857 24.571-54.857 54.857v914.286c0 30.286 24.571 54.857 54.857 54.857h512c30.286 0 72.571-17.714 93.714-38.857zM585.143 873.143v-214.857h214.857c-3.429 9.714-8.571 19.429-12.571 23.429l-178.857 178.857c-4 4-13.714 9.143-23.429 12.571zM804.571 0v585.143h-237.714c-30.286 0-54.857 24.571-54.857 54.857v237.714h-438.857v-877.714h731.429zM510.857 338.857c14.286-11.429 30.286-21.714 48-32 24 2.857 46.286 4 66.857 4 38.286 0 86.857-4.571 101.143-28 4-5.714 7.429-16 1.143-29.714-0.571-0.571-1.143-1.714-1.714-2.286v-0.571c-1.714-10.286-10.286-21.714-40.571-21.714-36.571 0-92 16.571-140 41.714-79.429-8.571-162.857-26.286-224-47.429-58.857-100.571-104-149.714-138.286-149.714-5.714 0-10.857 1.143-16 4l-13.714 6.857c-1.714 0.571-2.286 1.714-3.429 2.857-2.857 2.857-5.143 9.143-3.429 20.571 5.714 26.286 36.571 70.286 107.429 107.429 4.571 2.857 10.286 1.143 13.143-3.429 0.571-0.571 1.143-1.714 1.143-2.286 17.714 29.143 38.286 66.286 61.143 112.571 25.714 51.429 45.714 101.714 59.429 149.714-18.286 62.286-24 126.286-13.714 164 4 14.286 12.571 22.857 24 22.857h12.571c8.571 0 15.429-2.857 20-8.571 6.857-8 8.571-20.571 5.143-38.857-0.571-1.714-1.143-3.429-2.286-4.571 0.571-1.714 0.571-2.857 0.571-4.571v-17.143c-0.571-36-1.143-70.286-8-109.714 20-60 49.714-108.571 83.429-136zM181.714 104c17.143 8 41.714 32.571 78.286 90.286-42.857-33.143-69.714-70.857-78.286-90.286zM409.143 629.714c-5.714-16-5.714-43.429-1.143-75.429 1.714 9.143 2.857 17.714 4 25.143 1.143 9.714 2.857 17.714 4 24.571 0.571 1.714 1.143 2.857 2.286 4.571-0.571 0.571-0.571 1.714-1.143 2.857-0.571 10.286-4 16.571-7.429 20.571 0-1.143-0.571-1.714-0.571-2.286zM338.286 252c50.286 20 106.286 36 162.286 46.286-5.714 4.571-11.429 8.571-16.571 13.143-28 24.571-53.143 58.857-72.571 100.571-10.857-34.857-26.857-72-47.429-112.571-8.571-16-17.143-32-25.714-47.429zM707.429 261.143c-2.857 2.857-17.714 13.714-80 13.714 28-10.286 53.714-16 70.857-16 5.143 0 8 0 10.286 0.571 0 0.571-0.571 1.143-1.143 1.714z" />
<glyph unicode="&#xe902;" glyph-name="gavel, legal" horiz-adv-x="1035" d="M1012 73.143c0-19.429-8-38.286-21.143-51.429l-61.143-61.714c-13.714-13.143-32.571-21.143-52-21.143s-38.286 8-51.429 21.143l-207.429 208c-13.714 13.143-21.714 32-21.714 51.429 0 21.714 9.143 39.429 24.571 54.857l-146.286 146.286-72-72c-5.143-5.143-12-8-19.429-8s-14.286 2.857-19.429 8c17.143-17.143 33.143-29.714 33.143-56 0-14.857-5.714-28-16-38.857-19.429-20.571-40-48-70.857-48-14.286 0-28.571 5.714-38.857 16l-233.143 233.143c-10.286 10.286-16 24.571-16 38.857 0 30.857 27.429 51.429 48 70.857 10.857 10.286 24 16 38.857 16 26.286 0 38.857-16 56-33.143-5.143 5.143-8 12-8 19.429s2.857 14.286 8 19.429l198.857 198.857c5.143 5.143 12 8 19.429 8s14.286-2.857 19.429-8c-17.143 17.143-33.143 29.714-33.143 56 0 14.857 5.714 28 16 38.857 19.429 20.571 40 48 70.857 48 14.286 0 28.571-5.714 38.857-16l233.143-233.143c10.286-10.286 16-24.571 16-38.857 0-30.857-27.429-51.429-48-70.857-10.857-10.286-24-16-38.857-16-26.286 0-38.857 16-56 33.143 5.143-5.143 8-12 8-19.429s-2.857-14.286-8-19.429l-72-72 146.286-146.286c15.429 15.429 33.143 24.571 54.857 24.571 19.429 0 38.286-8 52-21.143l207.429-207.429c13.143-13.714 21.143-32.571 21.143-52z" />
<glyph unicode="&#xe977;" glyph-name="quotes-left" d="M225 512c123.712 0 224-100.29 224-224 0-123.712-100.288-224-224-224s-224 100.288-224 224l-1 32c0 247.424 200.576 448 448 448v-128c-85.474 0-165.834-33.286-226.274-93.726-11.634-11.636-22.252-24.016-31.83-37.020 11.438 1.8 23.16 2.746 35.104 2.746zM801 512c123.71 0 224-100.29 224-224 0-123.712-100.29-224-224-224s-224 100.288-224 224l-1 32c0 247.424 200.576 448 448 448v-128c-85.474 0-165.834-33.286-226.274-93.726-11.636-11.636-22.254-24.016-31.832-37.020 11.44 1.8 23.16 2.746 35.106 2.746z" />
<glyph unicode="&#xe978;" glyph-name="quotes-right" d="M800 320c-123.712 0-224 100.29-224 224 0 123.712 100.288 224 224 224s224-100.288 224-224l1-32c0-247.424-200.576-448-448-448v128c85.474 0 165.834 33.286 226.274 93.726 11.634 11.636 22.252 24.016 31.83 37.020-11.438-1.8-23.16-2.746-35.104-2.746zM224 320c-123.71 0-224 100.29-224 224 0 123.712 100.29 224 224 224s224-100.288 224-224l1-32c0-247.424-200.576-448-448-448v128c85.474 0 165.834 33.286 226.274 93.726 11.636 11.636 22.254 24.016 31.832 37.020-11.44-1.8-23.16-2.746-35.106-2.746z" />
<glyph unicode="&#xea0c;" glyph-name="info" d="M448 656c0 26.4 21.6 48 48 48h32c26.4 0 48-21.6 48-48v-32c0-26.4-21.6-48-48-48h-32c-26.4 0-48 21.6-48 48v32zM640 192h-256v64h64v192h-64v64h192v-256h64zM512 960c-282.77 0-512-229.23-512-512s229.23-512 512-512 512 229.23 512 512-229.23 512-512 512zM512 32c-229.75 0-416 186.25-416 416s186.25 416 416 416 416-186.25 416-416-186.25-416-416-416z" />
<glyph unicode="&#xf007;" glyph-name="user" horiz-adv-x="731" d="M731.429 151.428c0-83.429-54.857-151.429-121.714-151.429h-488c-66.857 0-121.714 68-121.714 151.429 0 150.286 37.143 324 186.857 324 46.286-45.143 109.143-73.143 178.857-73.143s132.571 28 178.857 73.143c149.714 0 186.857-173.714 186.857-324zM585.143 658.286c0-121.143-98.286-219.429-219.429-219.429s-219.429 98.286-219.429 219.429 98.286 219.429 219.429 219.429 219.429-98.286 219.429-219.429z" />
<glyph unicode="&#xf041;" glyph-name="map-marker" horiz-adv-x="585" d="M438.857 585.143c0 80.571-65.714 146.286-146.286 146.286s-146.286-65.714-146.286-146.286 65.714-146.286 146.286-146.286 146.286 65.714 146.286 146.286zM585.143 585.143c0-34.857-4-70.857-18.857-102.286l-208-442.286c-12-25.143-38.286-40.571-65.714-40.571s-53.714 15.429-65.143 40.571l-208.571 442.286c-14.857 31.429-18.857 67.429-18.857 102.286 0 161.714 130.857 292.571 292.571 292.571s292.571-130.857 292.571-292.571z" />
<glyph unicode="&#xf057;" glyph-name="times-circle" horiz-adv-x="878" d="M656.571 309.714c0 9.714-4 18.857-10.857 25.714l-103.429 103.429 103.429 103.429c6.857 6.857 10.857 16 10.857 25.714s-4 19.429-10.857 26.286l-51.429 51.429c-6.857 6.857-16.571 10.857-26.286 10.857s-18.857-4-25.714-10.857l-103.429-103.429-103.429 103.429c-6.857 6.857-16 10.857-25.714 10.857s-19.429-4-26.286-10.857l-51.429-51.429c-6.857-6.857-10.857-16.571-10.857-26.286s4-18.857 10.857-25.714l103.429-103.429-103.429-103.429c-6.857-6.857-10.857-16-10.857-25.714s4-19.429 10.857-26.286l51.429-51.429c6.857-6.857 16.571-10.857 26.286-10.857s18.857 4 25.714 10.857l103.429 103.429 103.429-103.429c6.857-6.857 16-10.857 25.714-10.857s19.429 4 26.286 10.857l51.429 51.429c6.857 6.857 10.857 16.571 10.857 26.286zM877.714 438.857c0-242.286-196.571-438.857-438.857-438.857s-438.857 196.571-438.857 438.857 196.571 438.857 438.857 438.857 438.857-196.571 438.857-438.857z" />
<glyph unicode="&#xf058;" glyph-name="check-circle" horiz-adv-x="878" d="M733.714 531.428c0 9.714-3.429 19.429-10.286 26.286l-52 51.429c-6.857 6.857-16 10.857-25.714 10.857s-18.857-4-25.714-10.857l-233.143-232.571-129.143 129.143c-6.857 6.857-16 10.857-25.714 10.857s-18.857-4-25.714-10.857l-52-51.429c-6.857-6.857-10.286-16.571-10.286-26.286s3.429-18.857 10.286-25.714l206.857-206.857c6.857-6.857 16.571-10.857 25.714-10.857 9.714 0 19.429 4 26.286 10.857l310.286 310.286c6.857 6.857 10.286 16 10.286 25.714zM877.714 438.857c0-242.286-196.571-438.857-438.857-438.857s-438.857 196.571-438.857 438.857 196.571 438.857 438.857 438.857 438.857-196.571 438.857-438.857z" />
<glyph unicode="&#xf095;" glyph-name="phone" horiz-adv-x="805" d="M804.571 242.286c0-20.571-9.143-60.571-17.714-79.429-12-28-44-46.286-69.714-60.571-33.714-18.286-68-29.143-106.286-29.143-53.143 0-101.143 21.714-149.714 39.429-34.857 12.571-68.571 28-100 47.429-97.143 60-214.286 177.143-274.286 274.286-19.429 31.429-34.857 65.143-47.429 100-17.714 48.571-39.429 96.571-39.429 149.714 0 38.286 10.857 72.571 29.143 106.286 14.286 25.714 32.571 57.714 60.571 69.714 18.857 8.571 58.857 17.714 79.429 17.714 4 0 8 0 12-1.714 12-4 24.571-32 30.286-43.429 18.286-32.571 36-65.714 54.857-97.714 9.143-14.857 26.286-33.143 26.286-50.857 0-34.857-103.429-85.714-103.429-116.571 0-15.429 14.286-35.429 22.286-49.143 57.714-104 129.714-176 233.714-233.714 13.714-8 33.714-22.286 49.143-22.286 30.857 0 81.714 103.429 116.571 103.429 17.714 0 36-17.143 50.857-26.286 32-18.857 65.143-36.571 97.714-54.857 11.429-5.714 39.429-18.286 43.429-30.286 1.714-4 1.714-8 1.714-12z" />
<glyph unicode="&#xf0ac;" glyph-name="globe" horiz-adv-x="878" d="M438.857 877.714c242.286 0 438.857-196.571 438.857-438.857s-196.571-438.857-438.857-438.857-438.857 196.571-438.857 438.857 196.571 438.857 438.857 438.857zM595.429 580c-4.571-3.429-7.429-9.714-13.143-10.857 2.857 0.571 5.714 10.857 7.429 13.143 3.429 4 8 6.286 12.571 8.571 9.714 4 19.429 5.143 29.714 6.857 9.714 2.286 21.714 2.286 29.143-6.286-1.714 1.714 12 13.714 13.714 14.286 5.143 2.857 13.714 1.714 17.143 6.857 1.143 1.714 1.143 12.571 1.143 12.571-9.714-1.143-13.143 8-13.714 16 0-0.571-1.143-2.286-3.429-4.571 0.571 8.571-10.286 2.286-14.286 3.429-13.143 3.429-11.429 12.571-15.429 22.286-2.286 5.143-8.571 6.857-10.857 12-2.286 3.429-3.429 10.857-8.571 11.429-3.429 0.571-9.714-12-10.857-11.429-5.143 2.857-7.429-1.143-11.429-3.429-3.429-2.286-6.286-1.143-9.714-2.857 10.286 3.429-4.571 9.143-9.714 8 8 2.286 4 10.857-0.571 14.857h2.857c-1.143 5.143-17.143 9.714-22.286 13.143s-32.571 9.143-38.286 5.714c-6.857-4 1.714-15.429 1.714-21.143 0.571-6.857-6.857-8.571-6.857-14.286 0-9.714 18.286-8 13.714-21.143-2.857-8-13.714-9.714-18.286-16-4.571-5.714 0.571-16 5.143-20 4.571-3.429-8-9.143-9.714-10.286-9.714-4.571-17.143 9.714-19.429 18.286-1.714 6.286-2.286 13.714-9.143 17.143-3.429 1.143-14.286 2.857-16.571-0.571-3.429 8.571-15.429 12-23.429 14.857-11.429 4-21.143 4-33.143 2.286 4 0.571-1.143 18.286-10.857 15.429 2.857 5.714 1.714 12 2.857 17.714 1.143 4.571 3.429 9.143 6.857 13.143 1.143 2.286 13.714 15.429 9.714 16 9.714-1.143 20.571-1.714 28.571 6.286 5.143 5.143 7.429 13.714 12.571 19.429 7.429 8.571 16.571-2.286 24.571-2.857 11.429-0.571 10.857 12 4.571 17.714 7.429-0.571 1.143 13.143-2.857 14.857-5.143 1.714-24.571-3.429-14.286-7.429-2.286 1.143-16-27.429-24-13.143-2.286 2.857-3.429 14.857-8.571 15.429-4.571 0-7.429-5.143-9.143-8.571 2.857 7.429-16 12.571-20 13.143 8.571 5.714 1.714 12-4.571 15.429-4.571 2.857-18.857 5.143-22.857 0.571-10.857-13.143 11.429-14.857 17.143-18.286 1.714-1.143 8.571-5.143 4.571-8-3.429-1.714-13.714-4.571-14.857-6.857-3.429-5.143 4-10.857-1.143-16-5.143 5.143-5.143 13.714-9.143 19.429 5.143-6.286-20.571-2.857-20-2.857-8.571 0-22.286-5.714-28.571 2.857-1.143 2.286-1.143 15.429 2.286 12.571-5.143 4-8.571 8-12 10.286-18.857-6.286-36.571-14.286-53.714-23.429 2.286-0.571 4-0.571 6.857 0.571 4.571 1.714 8.571 4.571 13.143 6.857 5.714 2.286 17.714 9.143 24 4 0.571 1.143 2.286 2.286 2.857 2.857 4-4.571 8-9.143 11.429-14.286-4.571 2.286-12 1.143-17.143 0.571-4-1.143-10.857-2.286-12.571-6.857 1.714-2.857 4-7.429 2.857-10.286-7.429 5.143-13.143 13.714-23.429 14.857-4.571 0-9.143 0-12.571-0.571-54.857-30.286-101.143-74.286-134.286-126.857 2.286-2.286 4.571-4 6.857-4.571 5.714-1.714 0-18.286 10.857-9.714 3.429-2.857 4-6.857 1.714-10.857 0.571 0.571 23.429-14.286 25.143-15.429 4-3.429 10.286-7.429 12-12 1.143-4-2.286-8.571-5.714-10.286-0.571 1.143-9.143 9.714-10.286 7.429-1.714-2.857 0-18.286 6.286-17.714-9.143-0.571-5.143-36-7.429-42.857 0-0.571 1.143-0.571 1.143-0.571-1.714-6.857 4-33.714 15.429-30.857-7.429-1.714 13.143-28 16-29.714 7.429-5.143 16-8.571 21.143-16 5.714-8 5.714-20 13.714-26.286-2.286-6.857 12-14.857 11.429-24.571-1.143-0.571-1.714-0.571-2.857-1.143 2.857-8 13.714-8 17.714-15.429 2.286-4.571 0-15.429 7.429-13.143 1.143 12.571-7.429 25.143-13.714 35.429-3.429 5.714-6.857 10.857-9.714 16.571-2.857 5.143-3.429 11.429-5.714 17.143 2.286-0.571 14.857-5.143 13.714-6.857-4.571-11.429 18.286-31.429 24.571-38.857 1.714-1.714 14.857-18.857 8-18.857 7.429 0 17.714-11.429 21.143-17.143 5.143-8.571 4-19.429 7.429-28.571 3.429-11.429 19.429-16.571 28.571-21.714 8-4 14.857-9.714 22.857-12.571 12-4.571 14.857-0.571 25.143 1.143 14.857 2.286 16.571-14.286 28.571-20.571 7.429-4 23.429-9.714 31.429-6.286-3.429-1.143 12-24.571 13.143-26.286 5.143-6.857 14.857-10.286 20.571-17.143 1.714 1.143 3.429 2.857 4 5.143-2.286-6.286 8.571-18.286 14.286-17.143 6.286 1.143 8 13.714 8 18.286-11.429-5.714-21.714-1.143-28 10.286-1.143 2.857-10.286 18.857-2.286 18.857 10.857 0 3.429 8.571 2.286 16.571s-9.143 13.143-13.143 20c-3.429-6.857-14.857-5.143-18.286 0.571 0-1.714-1.714-4.571-1.714-6.857-2.857 0-5.714-0.571-8.571 0.571 1.143 6.857 1.714 15.429 3.429 22.857 2.857 10.286 21.714 30.286-2.857 29.143-8.571-0.571-12-4-14.857-11.429-2.857-6.857-1.714-13.143-9.714-16.571-5.143-2.286-22.286-1.143-27.429 1.714-10.857 6.286-18.286 26.286-18.286 37.714-0.571 15.429 7.429 29.143 0 43.429 3.429 2.857 6.857 8.571 10.857 11.429 3.429 2.286 7.429-1.714 9.143 5.143-1.714 1.143-4 3.429-4.571 3.429 8.571-4 24.571 5.714 32 0 4.571-3.429 9.714-4.571 12.571 1.143 0.571 1.714-4 8.571-1.714 13.143 1.714-9.714 8-11.429 16.571-5.143 3.429-3.429 12.571-2.286 18.857-5.714 6.286-4 7.429-10.286 14.857-1.714 4.571-6.857 5.143-6.857 6.857-13.714 1.714-6.286 5.143-22.286 10.857-25.143 12-7.429 9.143 12.571 8 19.429-0.571 0.571-0.571 19.429-1.143 19.429-18.286 4-11.429 18.286-1.143 28 1.714 1.143 14.857 5.714 20.571 10.286 5.143 4.571 11.429 12.571 8.571 20 2.857 0 5.143 2.286 6.286 5.143-1.714 0.571-8.571 6.286-9.714 5.714 4 2.286 3.429 5.714 1.143 9.143 5.714 3.429 2.857 9.714 8.571 12 6.286-8.571 18.857 1.143 12.571 8 5.714 8 18.857 4 22.286 11.429 8.571-2.286 2.286 8.571 6.857 14.857 4 5.143 10.857 5.143 16 8 0-0.571 14.286 8 9.714 8.571 9.714-1.143 29.143 9.143 14.286 17.714 2.286 5.143-5.143 7.429-10.286 8.571 4 1.143 9.143-1.143 12.571 1.143 7.429 5.143 2.286 7.429-4 9.143-8 2.286-18.286-2.857-24.571-6.857zM502.286 78.857c78.286 13.714 148 52.571 200.571 108-3.429 3.429-9.714 2.286-14.286 4.571-4.571 1.714-8 3.429-13.714 4.571 1.143 11.429-11.429 15.429-19.429 21.143-7.429 5.714-12 12-22.857 9.714-1.143-0.571-12.571-4.571-10.286-6.857-7.429 6.286-10.857 9.714-20.571 12.571-9.143 2.857-15.429 14.286-24.571 4-4.571-4.571-2.286-11.429-4.571-16-7.429 6.286 6.857 13.714 1.143 20.571-6.857 8-18.857-5.143-24.571-8.571-3.429-2.857-7.429-4-9.714-7.429-2.857-4-4-9.143-6.286-13.143-1.714 4.571-11.429 3.429-12 6.857 2.286-13.714 2.286-28 5.143-41.714 1.714-8 0-21.143-6.857-27.429s-15.429-13.143-16.571-22.857c-1.143-6.857 0.571-13.143 6.857-14.857 0.571-8.571-9.143-14.857-8.571-24 0-0.571 0.571-6.286 1.143-9.143z" />
<glyph unicode="&#xf0e0;" glyph-name="envelope" d="M1024 545.143v-453.714c0-50.286-41.143-91.429-91.429-91.429h-841.143c-50.286 0-91.429 41.143-91.429 91.429v453.714c17.143-18.857 36.571-35.429 57.714-49.714 94.857-64.571 190.857-129.143 284-197.143 48-35.429 107.429-78.857 169.714-78.857h1.143c62.286 0 121.714 43.429 169.714 78.857 93.143 67.429 189.143 132.571 284.571 197.143 20.571 14.286 40 30.857 57.143 49.714zM1024 713.143c0-64-47.429-121.714-97.714-156.571-89.143-61.714-178.857-123.429-267.429-185.714-37.143-25.714-100-78.286-146.286-78.286h-1.143c-46.286 0-109.143 52.571-146.286 78.286-88.571 62.286-178.286 124-266.857 185.714-40.571 27.429-98.286 92-98.286 144 0 56 30.286 104 91.429 104h841.143c49.714 0 91.429-41.143 91.429-91.429z" />
<glyph unicode="&#xf19c;" glyph-name="bank, institution, university" horiz-adv-x="1097" d="M548.571 950.857l548.571-219.429v-73.143h-73.143c0-20-17.714-36.571-39.429-36.571h-872c-21.714 0-39.429 16.571-39.429 36.571h-73.143v73.143zM146.286 585.143h146.286v-438.857h73.143v438.857h146.286v-438.857h73.143v438.857h146.286v-438.857h73.143v438.857h146.286v-438.857h33.714c21.714 0 39.429-16.571 39.429-36.571v-36.571h-950.857v36.571c0 20 17.714 36.571 39.429 36.571h33.714v438.857zM1057.714 36.571c21.714 0 39.429-16.571 39.429-36.571v-73.143h-1097.143v73.143c0 20 17.714 36.571 39.429 36.571h1018.286z" />
<glyph unicode="&#xf298;" glyph-name="wpforms" horiz-adv-x="878" d="M294.286 430.286v-73.143h-144v73.143h144zM294.286 576v-72.571h-144v72.571h144zM727.429 284v-73.143h-194.857v73.143h194.857zM727.429 430.286v-73.143h-384v73.143h384zM727.429 576v-72.571h-384v72.571h384zM804.571 84.571v708.571c0 6.286-5.143 11.429-11.429 11.429h-18.286l-216-146.286-120 97.714-120-97.714-216 146.286h-18.286c-6.286 0-11.429-5.143-11.429-11.429v-708.571c0-6.286 5.143-11.429 11.429-11.429h708.571c6.286 0 11.429 5.143 11.429 11.429zM316 718.857l105.714 85.714h-232zM561.714 718.857l126.286 85.714h-232zM877.714 793.143v-708.571c0-46.857-37.714-84.571-84.571-84.571h-708.571c-46.857 0-84.571 37.714-84.571 84.571v708.571c0 46.857 37.714 84.571 84.571 84.571h708.571c46.857 0 84.571-37.714 84.571-84.571z" />
</font></defs></svg>